%YAML 1.1
%TAG !u! tag:unity3d.com,2011:
--- !u!1 &2671381536609238271
GameObject:
  m_ObjectHideFlags: 0
  m_CorrespondingSourceObject: {fileID: 0}
  m_PrefabInstance: {fileID: 0}
  m_PrefabAsset: {fileID: 0}
  serializedVersion: 6
  m_Component:
  - component: {fileID: 2671381536609238270}
  - component: {fileID: 2671381536609238265}
  m_Layer: 0
  m_Name: LiquidDictionary
  m_TagString: Untagged
  m_Icon: {fileID: 0}
  m_NavMeshLayer: 0
  m_StaticEditorFlags: 0
  m_IsActive: 1
--- !u!4 &2671381536609238270
Transform:
  m_ObjectHideFlags: 0
  m_CorrespondingSourceObject: {fileID: 0}
  m_PrefabInstance: {fileID: 0}
  m_PrefabAsset: {fileID: 0}
  m_GameObject: {fileID: 2671381536609238271}
  m_LocalRotation: {x: 0, y: 0, z: 0, w: 1}
  m_LocalPosition: {x: 0, y: 0, z: 0}
  m_LocalScale: {x: 1, y: 1, z: 1}
  m_Children: []
  m_Father: {fileID: 0}
  m_RootOrder: 0
  m_LocalEulerAnglesHint: {x: 0, y: 0, z: 0}
--- !u!114 &2671381536609238265
MonoBehaviour:
  m_ObjectHideFlags: 0
  m_CorrespondingSourceObject: {fileID: 0}
  m_PrefabInstance: {fileID: 0}
  m_PrefabAsset: {fileID: 0}
  m_GameObject: {fileID: 2671381536609238271}
  m_Enabled: 1
  m_EditorHideFlags: 0
  m_Script: {fileID: 11500000, guid: 9f8c428a911473841bf3bd97385b92e0, type: 3}
  m_Name: 
  m_EditorClassIdentifier: 
  CauldronWater: {fileID: 5978800867856404124, guid: 97001f07fdf7edb4bbd40c41c4161dd5,
    type: 3}
  BrewingPotion: {fileID: 4892651643890084029, guid: 2e47789431ddf464a8024980e782a6a0,
    type: 3}
  PoopSoup: {fileID: 238359139166339614, guid: 95be183e96b1bee449a66dcb809af7db, type: 3}
  FinishedPotion: {fileID: 6701162290453384237, guid: 1e6d5b2c13b712c4190c5d672037a43e,
    type: 3}
