%YAML 1.1
%TAG !u! tag:unity3d.com,2011:
--- !u!1 &3091225632868523557
GameObject:
  m_ObjectHideFlags: 0
  m_CorrespondingSourceObject: {fileID: 0}
  m_PrefabInstance: {fileID: 0}
  m_PrefabAsset: {fileID: 0}
  serializedVersion: 6
  m_Component:
  - component: {fileID: 5703505632574857022}
  - component: {fileID: -6961668614247068486}
  m_Layer: 0
  m_Name: BucketEmpty
  m_TagString: Untagged
  m_Icon: {fileID: 0}
  m_NavMeshLayer: 0
  m_StaticEditorFlags: 0
  m_IsActive: 1
--- !u!4 &5703505632574857022
Transform:
  m_ObjectHideFlags: 0
  m_CorrespondingSourceObject: {fileID: 0}
  m_PrefabInstance: {fileID: 0}
  m_PrefabAsset: {fileID: 0}
  m_GameObject: {fileID: 3091225632868523557}
  m_LocalRotation: {x: 0, y: 0, z: 0, w: 1}
  m_LocalPosition: {x: 0, y: 0, z: 0}
  m_LocalScale: {x: 1, y: 1, z: 1}
  m_Children:
  - {fileID: 1533656748293869356}
  m_Father: {fileID: 0}
  m_RootOrder: 0
  m_LocalEulerAnglesHint: {x: 0, y: 0, z: 0}
--- !u!114 &-6961668614247068486
MonoBehaviour:
  m_ObjectHideFlags: 0
  m_CorrespondingSourceObject: {fileID: 0}
  m_PrefabInstance: {fileID: 0}
  m_PrefabAsset: {fileID: 0}
  m_GameObject: {fileID: 3091225632868523557}
  m_Enabled: 1
  m_EditorHideFlags: 0
  m_Script: {fileID: 11500000, guid: a0bf5e150bb3446e92b089fedaaa2613, type: 3}
  m_Name: 
  m_EditorClassIdentifier: 
  ItemTypeDescription:
    ItemType: 1
    Enchanted: 0
    IsCauldronIngredient: 0
--- !u!1001 &2415341099717731387
PrefabInstance:
  m_ObjectHideFlags: 0
  serializedVersion: 2
  m_Modification:
    m_TransformParent: {fileID: 5703505632574857022}
    m_Modifications:
    - target: {fileID: 536067561721916308, guid: cd79dc2cbf07b554996ff09c084a3b9b,
        type: 3}
      propertyPath: m_Mesh
      value: 
      objectReference: {fileID: 0}
    - target: {fileID: 536067561721916308, guid: cd79dc2cbf07b554996ff09c084a3b9b,
        type: 3}
      propertyPath: m_Enabled
      value: 0
      objectReference: {fileID: 0}
    - target: {fileID: 3192488664236821606, guid: cd79dc2cbf07b554996ff09c084a3b9b,
        type: 3}
      propertyPath: m_Name
      value: BucketEmpty
      objectReference: {fileID: 0}
    - target: {fileID: 3804881158844214039, guid: cd79dc2cbf07b554996ff09c084a3b9b,
        type: 3}
      propertyPath: m_LocalPosition.x
      value: -0.291
      objectReference: {fileID: 0}
    - target: {fileID: 3804881158844214039, guid: cd79dc2cbf07b554996ff09c084a3b9b,
        type: 3}
      propertyPath: m_LocalPosition.y
      value: 0
      objectReference: {fileID: 0}
    - target: {fileID: 3804881158844214039, guid: cd79dc2cbf07b554996ff09c084a3b9b,
        type: 3}
      propertyPath: m_LocalPosition.z
      value: 0.114
      objectReference: {fileID: 0}
    - target: {fileID: 3804881158844214039, guid: cd79dc2cbf07b554996ff09c084a3b9b,
        type: 3}
      propertyPath: m_LocalRotation.x
      value: 0
      objectReference: {fileID: 0}
    - target: {fileID: 3804881158844214039, guid: cd79dc2cbf07b554996ff09c084a3b9b,
        type: 3}
      propertyPath: m_LocalRotation.y
      value: 0
      objectReference: {fileID: 0}
    - target: {fileID: 3804881158844214039, guid: cd79dc2cbf07b554996ff09c084a3b9b,
        type: 3}
      propertyPath: m_LocalRotation.z
      value: 0
      objectReference: {fileID: 0}
    - target: {fileID: 3804881158844214039, guid: cd79dc2cbf07b554996ff09c084a3b9b,
        type: 3}
      propertyPath: m_LocalRotation.w
      value: 1
      objectReference: {fileID: 0}
    - target: {fileID: 3804881158844214039, guid: cd79dc2cbf07b554996ff09c084a3b9b,
        type: 3}
      propertyPath: m_RootOrder
      value: 0
      objectReference: {fileID: 0}
    - target: {fileID: 3804881158844214039, guid: cd79dc2cbf07b554996ff09c084a3b9b,
        type: 3}
      propertyPath: m_LocalEulerAnglesHint.x
      value: 0
      objectReference: {fileID: 0}
    - target: {fileID: 3804881158844214039, guid: cd79dc2cbf07b554996ff09c084a3b9b,
        type: 3}
      propertyPath: m_LocalEulerAnglesHint.y
      value: 0
      objectReference: {fileID: 0}
    - target: {fileID: 3804881158844214039, guid: cd79dc2cbf07b554996ff09c084a3b9b,
        type: 3}
      propertyPath: m_LocalEulerAnglesHint.z
      value: 0
      objectReference: {fileID: 0}
    - target: {fileID: 3804881158844214039, guid: cd79dc2cbf07b554996ff09c084a3b9b,
        type: 3}
      propertyPath: m_LocalScale.x
      value: 0.6390752
      objectReference: {fileID: 0}
    - target: {fileID: 3804881158844214039, guid: cd79dc2cbf07b554996ff09c084a3b9b,
        type: 3}
      propertyPath: m_LocalScale.y
      value: 0.6390752
      objectReference: {fileID: 0}
    - target: {fileID: 3804881158844214039, guid: cd79dc2cbf07b554996ff09c084a3b9b,
        type: 3}
      propertyPath: m_LocalScale.z
      value: 0.6390752
      objectReference: {fileID: 0}
    - target: {fileID: 5359922362434763381, guid: cd79dc2cbf07b554996ff09c084a3b9b,
        type: 3}
      propertyPath: m_Mesh
      value: 
      objectReference: {fileID: 0}
    m_RemovedComponents: []
  m_SourcePrefab: {fileID: 100100000, guid: cd79dc2cbf07b554996ff09c084a3b9b, type: 3}
--- !u!4 &1533656748293869356 stripped
Transform:
  m_CorrespondingSourceObject: {fileID: 3804881158844214039, guid: cd79dc2cbf07b554996ff09c084a3b9b,
    type: 3}
  m_PrefabInstance: {fileID: 2415341099717731387}
  m_PrefabAsset: {fileID: 0}
