%YAML 1.1
%TAG !u! tag:unity3d.com,2011:
--- !u!1 &6174655430572285601
GameObject:
  m_ObjectHideFlags: 0
  m_CorrespondingSourceObject: {fileID: 0}
  m_PrefabInstance: {fileID: 0}
  m_PrefabAsset: {fileID: 0}
  serializedVersion: 6
  m_Component:
  - component: {fileID: 6174655430572285614}
  - component: {fileID: 6174655430572285615}
  m_Layer: 0
  m_Name: VialEmpty
  m_TagString: Untagged
  m_Icon: {fileID: 0}
  m_NavMeshLayer: 0
  m_StaticEditorFlags: 0
  m_IsActive: 1
--- !u!4 &6174655430572285614
Transform:
  m_ObjectHideFlags: 0
  m_CorrespondingSourceObject: {fileID: 0}
  m_PrefabInstance: {fileID: 0}
  m_PrefabAsset: {fileID: 0}
  m_GameObject: {fileID: 6174655430572285601}
  m_LocalRotation: {x: 0, y: 0, z: 0, w: 1}
  m_LocalPosition: {x: 0, y: 0, z: 0}
  m_LocalScale: {x: 1, y: 1, z: 1}
  m_Children:
  - {fileID: 5652770148647370530}
  m_Father: {fileID: 0}
  m_RootOrder: 0
  m_LocalEulerAnglesHint: {x: 0, y: 0, z: 0}
--- !u!114 &6174655430572285615
MonoBehaviour:
  m_ObjectHideFlags: 0
  m_CorrespondingSourceObject: {fileID: 0}
  m_PrefabInstance: {fileID: 0}
  m_PrefabAsset: {fileID: 0}
  m_GameObject: {fileID: 6174655430572285601}
  m_Enabled: 1
  m_EditorHideFlags: 0
  m_Script: {fileID: 11500000, guid: a0bf5e150bb3446e92b089fedaaa2613, type: 3}
  m_Name: 
  m_EditorClassIdentifier: 
  ItemTypeDescription:
    ItemType: 3
    Enchanted: 0
    IsCauldronIngredient: 0
--- !u!1001 &794912060245234744
PrefabInstance:
  m_ObjectHideFlags: 0
  serializedVersion: 2
  m_Modification:
    m_TransformParent: {fileID: 6174655430572285614}
    m_Modifications:
    - target: {fileID: -4216859302048453862, guid: dbeffbe74d805bd48a1a5b13cff1a161,
        type: 3}
      propertyPath: m_LocalPosition.x
      value: -0
      objectReference: {fileID: 0}
    - target: {fileID: -4216859302048453862, guid: dbeffbe74d805bd48a1a5b13cff1a161,
        type: 3}
      propertyPath: m_LocalPosition.y
      value: 0.325
      objectReference: {fileID: 0}
    - target: {fileID: -4216859302048453862, guid: dbeffbe74d805bd48a1a5b13cff1a161,
        type: 3}
      propertyPath: m_LocalPosition.z
      value: 0
      objectReference: {fileID: 0}
    - target: {fileID: -4216859302048453862, guid: dbeffbe74d805bd48a1a5b13cff1a161,
        type: 3}
      propertyPath: m_LocalRotation.x
      value: 0
      objectReference: {fileID: 0}
    - target: {fileID: -4216859302048453862, guid: dbeffbe74d805bd48a1a5b13cff1a161,
        type: 3}
      propertyPath: m_LocalRotation.y
      value: -0
      objectReference: {fileID: 0}
    - target: {fileID: -4216859302048453862, guid: dbeffbe74d805bd48a1a5b13cff1a161,
        type: 3}
      propertyPath: m_LocalRotation.z
      value: -0
      objectReference: {fileID: 0}
    - target: {fileID: -4216859302048453862, guid: dbeffbe74d805bd48a1a5b13cff1a161,
        type: 3}
      propertyPath: m_LocalRotation.w
      value: 1
      objectReference: {fileID: 0}
    - target: {fileID: -4216859302048453862, guid: dbeffbe74d805bd48a1a5b13cff1a161,
        type: 3}
      propertyPath: m_RootOrder
      value: 0
      objectReference: {fileID: 0}
    - target: {fileID: -4216859302048453862, guid: dbeffbe74d805bd48a1a5b13cff1a161,
        type: 3}
      propertyPath: m_LocalEulerAnglesHint.x
      value: 0
      objectReference: {fileID: 0}
    - target: {fileID: -4216859302048453862, guid: dbeffbe74d805bd48a1a5b13cff1a161,
        type: 3}
      propertyPath: m_LocalEulerAnglesHint.y
      value: 0
      objectReference: {fileID: 0}
    - target: {fileID: -4216859302048453862, guid: dbeffbe74d805bd48a1a5b13cff1a161,
        type: 3}
      propertyPath: m_LocalEulerAnglesHint.z
      value: 0
      objectReference: {fileID: 0}
    - target: {fileID: -4216859302048453862, guid: dbeffbe74d805bd48a1a5b13cff1a161,
        type: 3}
      propertyPath: m_LocalScale.x
      value: 0.3515
      objectReference: {fileID: 0}
    - target: {fileID: -4216859302048453862, guid: dbeffbe74d805bd48a1a5b13cff1a161,
        type: 3}
      propertyPath: m_LocalScale.y
      value: 0.3515
      objectReference: {fileID: 0}
    - target: {fileID: -4216859302048453862, guid: dbeffbe74d805bd48a1a5b13cff1a161,
        type: 3}
      propertyPath: m_LocalScale.z
      value: 0.3515
      objectReference: {fileID: 0}
    - target: {fileID: -2416733968201007103, guid: dbeffbe74d805bd48a1a5b13cff1a161,
        type: 3}
      propertyPath: m_Materials.Array.data[0]
      value: 
      objectReference: {fileID: 2100000, guid: 60638d9bfc06dd240bfed7383d723a1f, type: 2}
    - target: {fileID: -927199367670048503, guid: dbeffbe74d805bd48a1a5b13cff1a161,
        type: 3}
      propertyPath: m_Name
      value: vial1
      objectReference: {fileID: 0}
    m_RemovedComponents: []
  m_SourcePrefab: {fileID: 100100000, guid: dbeffbe74d805bd48a1a5b13cff1a161, type: 3}
--- !u!4 &5652770148647370530 stripped
Transform:
  m_CorrespondingSourceObject: {fileID: -4216859302048453862, guid: dbeffbe74d805bd48a1a5b13cff1a161,
    type: 3}
  m_PrefabInstance: {fileID: 794912060245234744}
  m_PrefabAsset: {fileID: 0}
